Recipe Preparation and Cook Time Calculator
…
## Warning: Predicate functions must be wrapped in `where()`.
## 
##   # Bad
##   data %>% select(is_double)
## 
##   # Good
##   data %>% select(where(is_double))
## 
##  Please update your code.
## This message is displayed once per session.

## # A tibble: 255 x 429
##    name  prep_time cook_time `Maida flour` ` yogurt` ` oil` ` sugar`
##    <chr>     <int>     <int>         <dbl>     <dbl>  <dbl>    <dbl>
##  1 Balu        45        25             1         1      1        1
##  2 Boon        80        30             0         0      0        1
##  3 Gaja        15        60             0         0      0        1
##  4 Ghev        15        30             0         0      0        1
##  5 Gula        15        40             0         0      0        1
##  6 Imar        10        50             0         0      0        0
##  7 Jale        10        50             0         0      0        0
##  8 Kaju        10        20             0         0      0        1
##  9 Kala        20        30             0         0      0        1
## 10 Kheer        10        40             0         0      0        1
## #  with 245 more rows, and 422 more variables: `Gram flour` <dbl>, `
## #   ghee` <dbl>, Carrots <dbl>, ` milk` <dbl>, ` cashews` <dbl>, `
## #   raisins` <dbl>, Flour <dbl>, ` kewra` <dbl>, ` clarified butter` <dbl>, `
## #   almonds` <dbl>, ` pistachio` <dbl>, ` saffron` <dbl>, ` green
## #   cardamom` <dbl>, `Milk powder` <dbl>, ` plain flour` <dbl>, ` baking
## #   powder` <dbl>, ` water` <dbl>, ` rose water` <dbl>, `Sugar syrup` <dbl>, `
## #   lentil flour` <dbl>, Maida <dbl>, ` corn flour` <dbl>, ` baking
## #   soda` <dbl>, ` vinegar` <dbl>, ` curd` <dbl>, ` turmeric` <dbl>, `
## #   cardamom` <dbl>, Cashews <dbl>, Milk <dbl>, ` cottage cheese` <dbl>, `
…
